FinalProject/simulation/qsim/finalproject.msim.vcd
$comment
	File created using the following command:
		vcd file finalproject.msim.vcd -direction
$end
$date
	Tue May 31 23:31:38 2016
$end
$version
	ModelSim Version 10.1d
$end
$timescale
	1ps
$end
$scope module controlunit_vlg_vec_tst $end
$var reg 1 ! Clock $end
$var reg 16 " datastring [15:0] $end
$var reg 16 # funct [15:0] $end
$var reg 1 $ Res $end
$var reg 1 % w $end
$var wire 1 & Ain $end
$var wire 1 ' ALU $end
$var wire 1 ( Data $end
$var wire 1 ) Done $end
$var wire 1 * Gin $end
$var wire 1 + Gout $end
$var wire 1 , R0_in $end
$var wire 1 - R0_out $end
$var wire 1 . R1_in $end
$var wire 1 / R1_out $end
$var wire 1 0 R2_in $end
$var wire 1 1 R2_out $end
$var wire 1 2 R3_in $end
$var wire 1 3 R3_out $end
$var wire 1 4 sampler $end
$scope module i1 $end
$var wire 1 5 gnd $end
$var wire 1 6 vcc $end
$var wire 1 7 unknown $end
$var tri1 1 8 devclrn $end
$var tri1 1 9 devpor $end
$var tri1 1 : devoe $end
$var wire 1 ; Equal0~0_combout $end
$var wire 1 < Y_present.NOP~regout $end
$var wire 1 = Y_present.NOP~feeder_combout $end
$var wire 1 > Y_next~0_combout $end
$var wire 1 ? Y_next.XOR0~0_combout $end
$var wire 1 @ Res~combout $end
$var wire 1 A Res~clkctrl_outclk $end
$var wire 1 B Y_present.XOR0~regout $end
$var wire 1 C Y_present.XOR1~regout $end
$var wire 1 D Y_present.XOR2~regout $end
$var wire 1 E Y_present.ADD1~regout $end
$var wire 1 F Y_present.ADD2~regout $end
$var wire 1 G Y_next.MOV~1_combout $end
$var wire 1 H Y_present.MOV~regout $end
$var wire 1 I WideOr5~0_combout $end
$var wire 1 J Selector0~0_combout $end
$var wire 1 K Y_present.RESET~regout $end
$var wire 1 L Y_next.MOV~0_combout $end
$var wire 1 M Y_next.ADD0~0_combout $end
$var wire 1 N Y_present.ADD0~regout $end
$var wire 1 O WideOr2~0_combout $end
$var wire 1 P WideOr2~1_combout $end
$var wire 1 Q Gout~0_combout $end
$var wire 1 R Clock~combout $end
$var wire 1 S Clock~clkctrl_outclk $end
$var wire 1 T temp[2]~0_combout $end
$var wire 1 U Y_present.LOAD0~regout $end
$var wire 1 V Y_present.LOAD1~regout $end
$var wire 1 W WideOr2~combout $end
$var wire 1 X temp[2]~0clkctrl_outclk $end
$var wire 1 Y Selector1~0_combout $end
$var wire 1 Z WideOr7~combout $end
$var wire 1 [ Selector5~0_combout $end
$var wire 1 \ Selector2~0_combout $end
$var wire 1 ] Selector6~0_combout $end
$var wire 1 ^ Selector3~0_combout $end
$var wire 1 _ Selector7~0_combout $end
$var wire 1 ` Selector4~0_combout $end
$var wire 1 a Selector8~0_combout $end
$var wire 1 b WideOr3~0_combout $end
$var wire 1 c funct~combout [15] $end
$var wire 1 d funct~combout [14] $end
$var wire 1 e funct~combout [13] $end
$var wire 1 f funct~combout [12] $end
$var wire 1 g funct~combout [11] $end
$var wire 1 h funct~combout [10] $end
$var wire 1 i funct~combout [9] $end
$var wire 1 j funct~combout [8] $end
$var wire 1 k funct~combout [7] $end
$var wire 1 l funct~combout [6] $end
$var wire 1 m funct~combout [5] $end
$var wire 1 n funct~combout [4] $end
$var wire 1 o funct~combout [3] $end
$var wire 1 p funct~combout [2] $end
$var wire 1 q funct~combout [1] $end
$var wire 1 r funct~combout [0] $end
$var wire 1 s temp [3] $end
$var wire 1 t temp [2] $end
$var wire 1 u temp [1] $end
$var wire 1 v temp [0] $end
$upscope $end
$upscope $end
$enddefinitions $end
#0
$dumpvars
0!
bx "
b11000 #
0$
0%
0&
0'
0(
0)
0*
0+
0,
0-
0.
0/
00
01
02
03
x4
05
16
x7
18
19
1:
1;
0<
0=
0>
0?
0@
0A
0B
0C
0D
0E
0F
0G
0H
1I
1J
0K
0L
0M
0N
1O
1P
1Q
0R
0S
1T
0U
0V
1W
1X
0Y
0Z
0[
0\
0]
0^
0_
0`
0a
0b
0r
0q
0p
1o
1n
0m
0l
0k
0j
0i
0h
0g
zf
ze
zd
zc
1v
0u
0t
0s
$end
#20000
1!
1R
1S
04
1K
1U
0W
0T
0X
1)
#40000
b1000 #
b0 #
0!
0o
0n
0R
0S
14
1>
#60000
1!
1R
1S
04
1V
0U
1`
1W
1=
1(
12
0)
#80000
0!
0R
0S
14
#100000
1!
1R
1S
04
0V
1<
0`
0W
0=
0J
0(
02
1)
#120000
0!
0R
0S
14
#130000
b10000000000 #
b10000100000 #
b10000100100 #
1p
1m
1h
04
0>
0;
#140000
1!
1R
1S
14
0K
0<
1W
1L
1J
1G
0)
#150000
b100100 #
b100 #
b0 #
0p
0m
0h
04
0G
1>
1;
0J
#160000
0!
0R
0S
14
#180000
1!
1R
1S
04
#200000
0!
0R
0S
14
#210000
b100000000000 #
b100001000000 #
b100001000010 #
1q
1l
1g
04
1M
0>
0;
1J
#220000
1!
1R
1S
14
1K
1N
0W
0L
0O
0M
1]
1W
1)
1&
1/
0)
#240000
0!
0R
0S
04
#260000
1!
1R
1S
14
0N
1E
1O
1Z
0P
0]
1[
0&
1*
0/
1-
#280000
0!
0R
0S
04
#300000
1!
1R
1S
14
1F
0E
0Q
0I
0Z
1P
1\
0J
0[
0W
1+
0*
1.
0-
1)
#310000
b1000010 #
b10 #
b0 #
0q
0l
0g
04
1>
1;
0\
0.
#320000
0!
0R
0S
14
#340000
1!
1R
1S
04
0K
0F
1W
1L
1Q
1I
0)
0+
#360000
0!
0R
0S
14
#370000
b100000000 #
b110000000 #
b110000001 #
1r
1k
1j
04
0L
1?
0>
1J
#380000
1!
1R
1S
14
1K
1B
0W
0?
1b
0O
1[
1W
1'
1)
1&
1-
0)
#400000
0!
0R
0S
04
#420000
1!
1R
1S
14
1C
0B
1Z
0P
1O
1a
0[
1*
0&
13
0-
#440000
0!
0R
0S
04
#460000
1!
1R
1S
14
1D
0C
0Q
0I
0Z
1P
1Y
0J
0a
0W
1+
0*
1,
03
1)
#470000
b10000001 #
b1 #
b0 #
0r
0k
0j
04
1>
0Y
0,
#480000
0!
0R
0S
14
#500000
1!
1R
1S
04
0K
0D
1W
1L
0b
1Q
1I
0'
0)
0+
#520000
0!
0R
0S
14
#540000
1!
1R
1S
04
#560000
0!
0R
0S
14
#580000
1!
1R
1S
04
#600000
0!
0R
0S
14
#620000
1!
1R
1S
04
#640000
0!
0R
0S
14
#660000
1!
1R
1S
04
#680000
0!
0R
0S
14
#700000
1!
1R
1S
04
#720000
0!
0R
0S
14
#740000
1!
1R
1S
04
#760000
0!
0R
0S
14
#780000
1!
1R
1S
04
#800000
0!
0R
0S
14
#820000
1!
1R
1S
04
#840000
0!
0R
0S
14
#860000
1!
1R
1S
04
#880000
0!
0R
0S
14
#900000
1!
1R
1S
04
#920000
0!
0R
0S
14
#940000
1!
1R
1S
04
#960000
0!
0R
0S
14
#980000
1!
1R
1S
04
