FinalProject/simulation/qsim/finalproject.msim.vcd
$comment
	File created using the following command:
		vcd file finalproject.msim.vcd -direction
$end
$date
	Tue May 24 22:59:47 2016
$end
$version
	ModelSim Version 10.1d
$end
$timescale
	1ps
$end
$scope module controlunit_vlg_vec_tst $end
$var reg 1 ! Clock $end
$var reg 16 " funct [15:0] $end
$var reg 1 # Res $end
$var reg 1 $ w $end
$var wire 1 % Ain $end
$var wire 1 & Data $end
$var wire 1 ' Done $end
$var wire 1 ( Gin $end
$var wire 1 ) Gout $end
$var wire 1 * R0_in $end
$var wire 1 + R0_out $end
$var wire 1 , R1_in $end
$var wire 1 - R1_out $end
$var wire 1 . R2_in $end
$var wire 1 / R2_out $end
$var wire 1 0 R3_in $end
$var wire 1 1 R3_out $end
$var wire 1 2 sampler $end
$scope module i1 $end
$var wire 1 3 gnd $end
$var wire 1 4 vcc $end
$var wire 1 5 unknown $end
$var tri1 1 6 devclrn $end
$var tri1 1 7 devpor $end
$var tri1 1 8 devoe $end
$var wire 1 9 Equal2~0_combout $end
$var wire 1 : comb~0_combout $end
$var wire 1 ; Y_next.ADD0~0_combout $end
$var wire 1 < Clock~combout $end
$var wire 1 = Clock~clkctrl_outclk $end
$var wire 1 > Y_next.ADD1~1_combout $end
$var wire 1 ? Y_next.ADD1~0_combout $end
$var wire 1 @ Selector13~0_combout $end
$var wire 1 A Selector13~0clkctrl_outclk $end
$var wire 1 B comb~1_combout $end
$var wire 1 C Y_next.XOR0_288~combout $end
$var wire 1 D Res~combout $end
$var wire 1 E Res~clkctrl_outclk $end
$var wire 1 F Y_present.XOR0~regout $end
$var wire 1 G Y_next.XOR1_276~combout $end
$var wire 1 H Y_present.XOR1~regout $end
$var wire 1 I Y_next.XOR2_261~combout $end
$var wire 1 J Y_present.XOR2~regout $end
$var wire 1 K Equal0~0_combout $end
$var wire 1 L comb~3_combout $end
$var wire 1 M Y_next.LOAD~0_combout $end
$var wire 1 N Y_next.LOAD_312~combout $end
$var wire 1 O Y_present.LOAD~feeder_combout $end
$var wire 1 P Y_present.LOAD~regout $end
$var wire 1 Q Y_next.ADD1_234~combout $end
$var wire 1 R Y_present.ADD1~regout $end
$var wire 1 S Y_next.ADD2_219~combout $end
$var wire 1 T Y_present.ADD2~regout $end
$var wire 1 U WideOr5~1_combout $end
$var wire 1 V Y_next.RESET_327~combout $end
$var wire 1 W Y_present.RESET~0_combout $end
$var wire 1 X Y_present.RESET~regout $end
$var wire 1 Y comb~2_combout $end
$var wire 1 Z Y_next.ADD0_246~combout $end
$var wire 1 [ Y_present.ADD0~feeder_combout $end
$var wire 1 \ Y_present.ADD0~regout $end
$var wire 1 ] Ain~2_combout $end
$var wire 1 ^ WideOr7~0_combout $end
$var wire 1 _ WideOr5~0_combout $end
$var wire 1 ` R0_in~0_combout $end
$var wire 1 a Equal1~0_combout $end
$var wire 1 b Y_next.MOV~0_combout $end
$var wire 1 c comb~4_combout $end
$var wire 1 d Y_next.MOV_300~combout $end
$var wire 1 e Y_present.MOV~regout $end
$var wire 1 f WideOr7~combout $end
$var wire 1 g Selector4~0_combout $end
$var wire 1 h R1_in~0_combout $end
$var wire 1 i Selector5~0_combout $end
$var wire 1 j R2_in~0_combout $end
$var wire 1 k Selector6~0_combout $end
$var wire 1 l R3_in~0_combout $end
$var wire 1 m Selector7~0_combout $end
$var wire 1 n funct~combout [15] $end
$var wire 1 o funct~combout [14] $end
$var wire 1 p funct~combout [13] $end
$var wire 1 q funct~combout [12] $end
$var wire 1 r funct~combout [11] $end
$var wire 1 s funct~combout [10] $end
$var wire 1 t funct~combout [9] $end
$var wire 1 u funct~combout [8] $end
$var wire 1 v funct~combout [7] $end
$var wire 1 w funct~combout [6] $end
$var wire 1 x funct~combout [5] $end
$var wire 1 y funct~combout [4] $end
$var wire 1 z funct~combout [3] $end
$var wire 1 { funct~combout [2] $end
$var wire 1 | funct~combout [1] $end
$var wire 1 } funct~combout [0] $end
$upscope $end
$upscope $end
$enddefinitions $end
#0
$dumpvars
0!
b0 "
0#
0$
0%
0&
0'
0(
0)
0*
0+
0,
0-
0.
0/
00
01
x2
03
14
x5
16
17
18
09
0:
0;
0<
0=
1>
0?
0@
0A
0B
xC
0D
0E
0F
xG
0H
xI
0J
0K
1L
0M
xN
xO
0P
xQ
0R
xS
0T
0U
xV
xW
0X
0Y
xZ
x[
0\
0]
1^
1_
0`
0a
0b
1c
xd
0e
0f
0g
0h
0i
0j
0k
0l
0m
z}
z|
z{
zz
0y
0x
0w
0v
0u
0t
0s
0r
0q
0p
0o
0n
$end
#10000
b1000000000000 "
b1000100000000 "
1u
1q
02
1K
1?
0>
1M
0c
1Y
1@
1:
1A
1N
0d
0Z
0C
0V
0S
0Q
0I
0G
1O
0[
1W
#20000
1!
1<
1=
12
1X
1P
0M
0L
1U
1&
0N
1`
1V
1'
0O
0W
1*
#30000
b100000000 "
b0 "
0u
0q
02
0`
0K
0?
1>
0*
#40000
0!
0<
0=
12
#60000
1!
1<
1=
02
0X
0P
1c
0Y
1L
0@
0:
0U
0A
0&
0'
#80000
0!
0<
0=
12
#90000
b10000000000000 "
b10001000000000 "
b10001010000000 "
1v
1t
1p
02
1a
1?
0>
1b
1Y
0L
1@
1:
1A
1d
0V
1W
#100000
1!
1<
1=
12
1X
1e
0c
0b
1f
1U
0d
1m
1h
1V
1'
0W
11
1,
#110000
b1010000000 "
b10000000 "
b0 "
0v
0t
0p
02
0m
0h
0a
0?
1>
01
0,
#120000
0!
0<
0=
12
#140000
1!
1<
1=
02
0X
0e
1c
0Y
1L
0@
0:
0f
0U
0A
0'
#160000
0!
0<
0=
12
#170000
b100000000000000 "
b100010000000000 "
b100010000100000 "
1x
1s
1o
02
1?
19
0c
0L
1@
1:
1;
1A
1Z
0V
1[
1W
#180000
1!
1<
1=
12
1X
1\
1Y
0;
1]
1Q
0Z
1k
1%
0[
1/
#200000
0!
0<
0=
02
#220000
1!
1<
1=
12
0\
1R
0]
0Q
1f
0^
1S
0k
1i
0%
1(
0/
1-
#240000
0!
0<
0=
02
#260000
1!
1<
1=
12
1T
0R
0_
1U
0f
1^
0S
1j
1V
0i
1'
1)
0(
0W
1.
0-
#270000
b10000100000 "
b100000 "
b0 "
0x
0s
0o
02
0j
0?
09
0.
#280000
0!
0<
0=
12
#300000
1!
1<
1=
02
0X
0T
1c
0Y
1L
0@
0:
1_
0U
0A
0'
0)
#320000
0!
0<
0=
12
#330000
b1000000000000000 "
b1000100000000000 "
b1000100000010000 "
1y
1r
1n
02
1?
0c
1Y
0L
1B
1@
1A
1C
0V
1W
#340000
1!
1<
1=
12
1X
1F
0B
1:
1]
1G
0C
1m
1%
11
#360000
0!
0<
0=
02
#380000
1!
1<
1=
12
1H
0F
1f
0^
1I
0]
0G
0m
1g
0%
1(
01
1+
#400000
0!
0<
0=
02
#420000
1!
1<
1=
12
1J
0H
0_
1U
0f
1^
0I
1l
1V
0g
1'
1)
0(
0W
10
0+
#430000
b100000010000 "
b10000 "
b0 "
0y
0r
0n
02
0l
0?
00
#440000
0!
0<
0=
12
#460000
1!
1<
1=
02
0X
0J
1c
0Y
1L
0@
0:
1_
0U
0A
0'
0)
#480000
0!
0<
0=
12
#500000
1!
1<
1=
02
#520000
0!
0<
0=
12
#540000
1!
1<
1=
02
#560000
0!
0<
0=
12
#580000
1!
1<
1=
02
#600000
0!
0<
0=
12
#620000
1!
1<
1=
02
#640000
0!
0<
0=
12
#660000
1!
1<
1=
02
#680000
0!
0<
0=
12
#700000
1!
1<
1=
02
#720000
0!
0<
0=
12
#740000
1!
1<
1=
02
#760000
0!
0<
0=
12
#780000
1!
1<
1=
02
#800000
0!
0<
0=
12
#820000
1!
1<
1=
02
#840000
0!
0<
0=
12
#860000
1!
1<
1=
02
#880000
0!
0<
0=
12
#900000
1!
1<
1=
02
#920000
0!
0<
0=
12
#940000
1!
1<
1=
02
#960000
0!
0<
0=
12
#980000
1!
1<
1=
02
